Day 2/encoder.vcd
$date
	Tue Apr  8 14:29:38 2025
$end
$version
	Icarus Verilog
$end
$timescale
	10ps
$end
$scope module tb_encoder_8to3 $end
$var wire 3 ! out [2:0] $end
$var reg 8 " in [7:0] $end
$scope module uut $end
$var wire 8 # in [7:0] $end
$var wire 3 $ out [2:0] $end
$upscope $end
$upscope $end
$enddefinitions $end
$comment Show the parameter values. $end
$dumpall
$end
#0
$dumpvars
b0 $
b1 #
b1 "
b0 !
$end
#10000
b1 !
b1 $
b10 "
b10 #
#20000
b10 !
b10 $
b100 "
b100 #
#30000
b11 !
b11 $
b1000 "
b1000 #
#40000
b100 !
b100 $
b10000 "
b10000 #
#50000
b101 !
b101 $
b100000 "
b100000 #
#60000
b110 !
b110 $
b1000000 "
b1000000 #
#70000
b111 !
b111 $
b10000000 "
b10000000 #
